{
    "web": {
        "auth_uri": "https://sso.[[DOMAIN]]/auth/realms/master/protocol/openid-connect/auth",
        "client_id": "adminapp",
        "client_secret": "8a9e5a2e-3be9-43e3-9c47-1796f0d5ab72",
        "redirect_uris": [
            "https://sso.[[DOMAIN]]/oidc_callback"
        ],
        "userinfo_uri": "https://sso.[[DOMAIN]]/auth/realms/master/protocol/openid-connect/userinfo",
        "token_uri": "https://sso.[[DOMAIN]]/auth/realms/master/protocol/openid-connect/token",
        "token_introspection_uri": "https://sso.[[DOMAIN]]/auth/realms/master/protocol/openid-connect/token/introspect"
    }
}