{
    "id" : "630601f8-25d1-4822-8741-c93affd2cd84",
    "clientId" : "php-saml",
    "surrogateAuthRequired" : false,
    "enabled" : true,
    "alwaysDisplayInConsole" : false,
    "clientAuthenticatorType" : "client-secret",
    "redirectUris" : [ "https://wp.[[DOMAIN]]/wp-login.php?saml_acs" ],
    "webOrigins" : [ "https://wp.[[DOMAIN]]" ],
    "notBefore" : 0,
    "bearerOnly" : false,
    "consentRequired" : false,
    "standardFlowEnabled" : true,
    "implicitFlowEnabled" : false,
    "directAccessGrantsEnabled" : false,
    "serviceAccountsEnabled" : false,
    "publicClient" : false,
    "frontchannelLogout" : true,
    "protocol" : "saml",
    "attributes" : {
      "saml.force.post.binding" : "true",
      "saml_assertion_consumer_url_post" : "https://wp.[[DOMAIN]]/wp-login.php?saml_acs",
      "saml.server.signature" : "true",
      "saml.server.signature.keyinfo.ext" : "false",
      "saml.signing.certificate" : "[[SIGNING_CERTIFICATE]]",
      "saml_single_logout_service_url_redirect" : "https://wp.[[DOMAIN]]/wp-login.php?saml_sls",
      "saml.signature.algorithm" : "RSA_SHA256",
      "saml_force_name_id_format" : "false",
      "saml.client.signature" : "true",
      "saml.authnstatement" : "true",
      "saml_name_id_format" : "username",
      "saml_signature_canonicalization_method" : "http://www.w3.org/2001/10/xml-exc-c14n#"
    },
    "authenticationFlowBindingOverrides" : { },
    "fullScopeAllowed" : true,
    "nodeReRegistrationTimeout" : -1,
    "protocolMappers" : [ {
      "id" : "72c6175e-bd07-4c27-abd6-4e4ae38d834b",
      "name" : "username",
      "protocol" : "saml",
      "protocolMapper" : "saml-user-attribute-mapper",
      "consentRequired" : false,
      "config" : {
        "attribute.nameformat" : "Basic",
        "user.attribute" : "username",
        "friendly.name" : "username",
        "attribute.name" : "username"
      }
    }, {
      "id" : "abd6562f-4732-4da9-987f-b1a6ad6605fa",
      "name" : "roles",
      "protocol" : "saml",
      "protocolMapper" : "saml-role-list-mapper",
      "consentRequired" : false,
      "config" : {
        "single" : "true",
        "attribute.nameformat" : "Basic",
        "friendly.name" : "Roles",
        "attribute.name" : "Role"
      }
    }, {
      "id" : "50aafb71-d91c-4bc7-bb60-e1ae0222aab3",
      "name" : "email",
      "protocol" : "saml",
      "protocolMapper" : "saml-user-property-mapper",
      "consentRequired" : false,
      "config" : {
        "attribute.nameformat" : "Basic",
        "user.attribute" : "email",
        "friendly.name" : "email",
        "attribute.name" : "email"
      }
    } ],
    "defaultClientScopes" : [ "web-origins", "role_list", "roles", "profile", "email" ],
    "optionalClientScopes" : [ "address", "phone", "offline_access", "microprofile-jwt" ],
    "access" : {
      "view" : true,
      "configure" : true,
      "manage" : true
    }
  }